<?xml version="1.0" standalone="no"?>
<!DOCTYPE svg PUBLIC "-//W3C//DTD SVG 20010904//EN"
 "http://www.w3.org/TR/2001/REC-SVG-20010904/DTD/svg10.dtd">
<svg version="1.0" xmlns="http://www.w3.org/2000/svg"
 width="16.000000pt" height="16.000000pt" viewBox="0 0 16.000000 16.000000"
 preserveAspectRatio="xMidYMid meet">
<metadata>
Created by potrace 1.11, written by Peter Selinger 2001-2013
</metadata>
<g transform="translate(0.000000,16.000000) scale(0.008889,-0.008889)"
fill="#000000" stroke="none">
<path d="M830 1703 c-103 -11 -187 -37 -320 -101 -77 -36 -96 -49 -164 -105
-104 -87 -236 -247 -236 -287 0 -22 -46 -110 -64 -122 -7 -5 -7 -11 2 -20 17
-17 15 -24 -10 -48 -17 -16 -19 -23 -10 -32 7 -7 12 -44 12 -96 0 -171 62
-327 190 -472 70 -80 89 -98 112 -106 10 -3 18 -9 18 -14 0 -13 91 -75 140
-94 25 -9 55 -24 66 -31 12 -8 48 -21 80 -30 33 -9 82 -23 109 -31 80 -23 286
-28 375 -10 115 23 222 54 239 70 9 7 33 19 53 25 82 27 262 167 313 245 14
21 15 29 5 41 -7 8 -16 15 -21 15 -5 0 -28 14 -51 31 l-43 30 -57 -60 c-31
-34 -62 -61 -69 -61 -7 0 -27 -15 -44 -33 -43 -44 -74 -66 -115 -84 -19 -8
-53 -23 -75 -33 -22 -9 -93 -27 -158 -40 -145 -28 -200 -22 -205 22 -4 35 -19
36 -34 3 -13 -29 -20 -30 -110 -10 -59 12 -214 77 -228 95 -3 4 -20 15 -37 25
-18 11 -33 22 -33 26 0 4 -15 16 -34 27 -57 34 -160 213 -190 333 -25 96 -17
282 13 312 8 8 17 5 34 -11 26 -24 47 -29 47 -9 -1 20 -26 47 -44 47 -9 0 -16
7 -16 17 0 18 40 90 77 139 12 17 23 35 23 40 0 10 95 104 105 104 3 0 28 16
56 35 28 19 56 35 62 35 6 0 18 7 27 15 9 8 68 28 132 45 97 25 136 30 232 30
63 0 127 -5 143 -11 15 -6 54 -17 85 -25 51 -12 150 -58 188 -88 8 -6 31 -20
50 -30 19 -11 63 -48 98 -84 l62 -63 28 18 c15 10 40 25 56 33 57 29 50 41
-94 167 -57 51 -112 88 -167 114 -46 21 -85 39 -88 39 -3 0 -24 9 -48 19 -92
42 -299 62 -467 44z"/>
<path d="M850 1295 c-78 -14 -207 -74 -217 -101 -6 -15 98 -124 118 -124 13 0
52 20 59 30 13 20 88 40 147 40 99 0 148 -37 128 -99 -8 -25 -129 -138 -170
-157 -32 -15 -149 -93 -177 -118 -9 -8 -30 -22 -47 -30 -16 -9 -32 -24 -35
-34 -5 -15 2 -124 7 -128 9 -7 625 -12 635 -6 8 6 13 35 14 83 l1 74 -136 3
c-76 1 -137 7 -137 12 0 5 12 17 26 27 14 10 34 25 43 33 9 8 49 41 88 72 67
54 72 62 92 125 34 111 5 185 -102 258 -70 47 -210 64 -337 40z"/>
<path d="M0 1214 c0 -8 5 -12 10 -9 6 3 10 10 10 16 0 5 -4 9 -10 9 -5 0 -10
-7 -10 -16z"/>
<path d="M0 1144 c0 -17 22 -14 28 4 2 7 -3 12 -12 12 -9 0 -16 -7 -16 -16z"/>
<path d="M350 1026 c0 -9 7 -16 16 -16 17 0 14 22 -4 28 -7 2 -12 -3 -12 -12z"/>
<path d="M502 941 c2 -7 7 -12 11 -12 12 1 9 15 -3 20 -7 2 -11 -2 -8 -8z"/>
<path d="M1727 913 c-8 -8 3 -116 13 -123 4 -3 13 -18 21 -34 28 -58 39 -44
39 51 0 86 -1 88 -27 101 -31 14 -37 15 -46 5z"/>
<path d="M270 855 c-10 -12 -9 -16 3 -21 20 -7 37 3 37 22 0 18 -24 18 -40 -1z"/>
<path d="M1660 816 c0 -16 37 -29 45 -16 3 5 -3 14 -14 19 -26 14 -31 14 -31
-3z"/>
<path d="M0 344 c0 -29 4 -34 23 -34 56 1 64 50 9 61 -31 6 -32 5 -32 -27z"/>
<path d="M100 320 c0 -5 14 -10 30 -10 17 0 30 5 30 10 0 6 -13 10 -30 10 -16
0 -30 -4 -30 -10z"/>
<path d="M1686 305 c-9 -24 -8 -25 18 -35 29 -11 66 -2 66 16 0 16 -6 20 -46
28 -24 5 -33 3 -38 -9z"/>
<path d="M0 230 c0 -14 7 -20 21 -20 15 0 19 4 15 16 -3 9 -6 18 -6 20 0 2 -7
4 -15 4 -8 0 -15 -9 -15 -20z"/>
<path d="M1182 47 c-25 -27 -14 -47 26 -47 20 0 23 4 20 32 -4 40 -18 45 -46
15z"/>
</g>
</svg>
